%YAML 1.1
%TAG !u! tag:unity3d.com,2011:
--- !u!1 &2263953244130294894
GameObject:
  m_ObjectHideFlags: 0
  m_CorrespondingSourceObject: {fileID: 0}
  m_PrefabInstance: {fileID: 0}
  m_PrefabAsset: {fileID: 0}
  serializedVersion: 6
  m_Component:
  - component: {fileID: 2263953244130294892}
  - component: {fileID: 2263953244130294898}
  m_Layer: 0
  m_Name: LocalGameResources
  m_TagString: Untagged
  m_Icon: {fileID: 0}
  m_NavMeshLayer: 0
  m_StaticEditorFlags: 0
  m_IsActive: 1
--- !u!4 &2263953244130294892
Transform:
  m_ObjectHideFlags: 0
  m_CorrespondingSourceObject: {fileID: 0}
  m_PrefabInstance: {fileID: 0}
  m_PrefabAsset: {fileID: 0}
  m_GameObject: {fileID: 2263953244130294894}
  m_LocalRotation: {x: 0, y: 0, z: 0, w: 1}
  m_LocalPosition: {x: 0, y: 0, z: 0}
  m_LocalScale: {x: 1, y: 1, z: 1}
  m_Children: []
  m_Father: {fileID: 0}
  m_RootOrder: 0
  m_LocalEulerAnglesHint: {x: 0, y: 0, z: 0}
--- !u!114 &2263953244130294898
MonoBehaviour:
  m_ObjectHideFlags: 0
  m_CorrespondingSourceObject: {fileID: 0}
  m_PrefabInstance: {fileID: 0}
  m_PrefabAsset: {fileID: 0}
  m_GameObject: {fileID: 2263953244130294894}
  m_Enabled: 1
  m_EditorHideFlags: 0
  m_Script: {fileID: 11500000, guid: b270a7ce100e9f043a3d85b32332c85d, type: 3}
  m_Name: 
  m_EditorClassIdentifier: 
  resources:
  - ID: 1
    name: steamcell
    icon: {fileID: 21300000, guid: 19182edaecb2a9145937d8b0d772f759, type: 3}
  - ID: 2
    name: Thale
    icon: {fileID: 21300002, guid: 19182edaecb2a9145937d8b0d772f759, type: 3}
  - ID: 3
    name: motoKit
    icon: {fileID: 21300004, guid: 19182edaecb2a9145937d8b0d772f759, type: 3}
  - ID: 4
    name: roche1
    icon: {fileID: 21300008, guid: 19182edaecb2a9145937d8b0d772f759, type: 3}
  - ID: 5
    name: roche2
    icon: {fileID: 21300010, guid: 19182edaecb2a9145937d8b0d772f759, type: 3}
  - ID: 6
    name: roche3
    icon: {fileID: 21300012, guid: 19182edaecb2a9145937d8b0d772f759, type: 3}
  - ID: 7
    name: roche4
    icon: {fileID: 21300014, guid: 19182edaecb2a9145937d8b0d772f759, type: 3}
  - ID: 8
    name: roche5
    icon: {fileID: 21300016, guid: 19182edaecb2a9145937d8b0d772f759, type: 3}
  - ID: 9
    name: roche6
    icon: {fileID: 21300018, guid: 19182edaecb2a9145937d8b0d772f759, type: 3}
  - ID: 10
    name: roche7
    icon: {fileID: 21300020, guid: 19182edaecb2a9145937d8b0d772f759, type: 3}
  - ID: 11
    name: roche8
    icon: {fileID: 21300022, guid: 19182edaecb2a9145937d8b0d772f759, type: 3}
  - ID: 12
    name: roche9
    icon: {fileID: 21300024, guid: 19182edaecb2a9145937d8b0d772f759, type: 3}
  - ID: 13
    name: roche10
    icon: {fileID: 21300026, guid: 19182edaecb2a9145937d8b0d772f759, type: 3}
  stations:
  - ID: 3
    name: Albanel
    icon: {fileID: 0}
    description: Albanel
  - ID: 6
    name: Dolbeau
    icon: {fileID: 0}
    description: Dolbeau
  - ID: 9
    name: Normandin
    icon: {fileID: 0}
    description: Normandin
  - ID: 12
    name: StMethode
    icon: {fileID: 0}
    description: StMethode
  - ID: 15
    name: StFelicien
    icon: {fileID: 0}
    description: StFelicien
  vehicles:
  - type: 1
    name: Moto
    icon: {fileID: 21300006, guid: 19182edaecb2a9145937d8b0d772f759, type: 3}
